…
``` r
unique_nbhd_count %>% print()
```

    ## # A tibble: 1 × 1
    ##   `n_distinct(neighborhood)`
    ##                        <int>
    ## 1                         43

``` r
zc_not_included %>% print()
```

    ## # A tibble: 171 × 1
    ##    zip_code
    ##       <dbl>
    ##  1    10008
    ##  2    10020
    ##  3    10041
    ##  4    10043
    ##  5    10045
    ##  6    10047
    ##  7    10048
    ##  8    10055
    ##  9    10072
    ## 10    10080
    ## # ℹ 161 more rows
…
